{
  "data": [
    {
      "type": "domain",
      "id": "vcl.avsvmcloud.com",
      "context_attributes": {
        "timestamp": 1762737498
      }
    },
    {
      "type": "domain",
      "id": "downloads.avsvmcloud.com",
      "context_attributes": {
        "timestamp": 1762630196
      }
    },
    {
      "type": "domain",
      "id": "mlj.avsvmcloud.com",
      "context_attributes": {
        "timestamp": 1762226435
      }
    },
    {
      "type": "domain",
      "id": "pop.avsvmcloud.com",
      "context_attributes": {
        "timestamp": 1760797002
      }
    },
    {
      "type": "domain",
      "id": "jod.avsvmcloud.com",
      "context_attributes": {
        "timestamp": 1760603621
      }
    },
    {
      "type": "domain",
      "id": "estimulaciontemprana.avsvmcloud.com",
      "context_attributes": {
        "timestamp": 1760276184
      }
    },
    {
      "type": "domain",
      "id": "ocm.avsvmcloud.com",
      "context_attributes": {
        "timestamp": 1758853943
      }
    },
    {
      "type": "domain",
      "id": "fua.avsvmcloud.com",
      "context_attributes": {
        "timestamp": 1758717526
      }
    },
    {
      "type": "domain",
      "id": "ifd.avsvmcloud.com",
      "context_attributes": {
        "timestamp": 1758715723
      }
    },
    {
      "type": "domain",
      "id": "pfq.avsvmcloud.com",
      "context_attributes": {
        "timestamp": 1757573910
      }
    },
    {
      "type": "domain",
      "id": "jxh.avsvmcloud.com",
      "context_attributes": {
        "timestamp": 1757523120
      }
    },
    {
      "type": "domain",
      "id": "tva.avsvmcloud.com",
      "context_attributes": {
        "timestamp": 1757316151
      }
    },
    {
      "type": "domain",
      "id": "qgh.avsvmcloud.com",
      "context_attributes": {
        "timestamp": 1757079655
      }
    },
    {
      "type": "domain",
      "id": "afm.avsvmcloud.com",
      "context_attributes": {
        "timestamp": 1756836237
      }
    },
    {
      "type": "domain",
      "id": "vud.avsvmcloud.com",
      "context_attributes": {
        "timestamp": 1756632224
      }
    },
    {
      "type": "domain",
      "id": "faj.avsvmcloud.com",
      "context_attributes": {
        "timestamp": 1756542820
      }
    },
    {
      "type": "domain",
      "id": "uds.avsvmcloud.com",
      "context_attributes": {
        "timestamp": 1756383256
      }
    },
    {
      "type": "domain",
      "id": "cpd.avsvmcloud.com",
      "context_attributes": {
        "timestamp": 1755611156
      }
    },
    {
      "type": "domain",
      "id": "evaluation.avsvmcloud.com",
      "context_attributes": {
        "timestamp": 1752896988
      }
    },
    {
      "type": "domain",
      "id": "eu-north-1.avsvmcloud.com",
      "context_attributes": {
        "timestamp": 1752509932
      }
    }
  ],
  "meta": {
    "count": 8344,
    "cursor": "eyJsaW1pdCI6IDIwLCAib2Zmc2V0IjogMjB9"
  },
  "links": {
    "self": "https://www.virustotal.com/api/v3/domains/avsvmcloud.com/relationships/subdomains?limit=20",
    "related": "https://www.virustotal.com/api/v3/domains/avsvmcloud.com/subdomains",
    "next": "https://www.virustotal.com/api/v3/domains/avsvmcloud.com/relationships/subdomains?limit=20&cursor=eyJsaW1pdCI6IDIwLCAib2Zmc2V0IjogMjB9"
  }
}