{
  "data": [
    {
      "type": "domain",
      "id": "vcl.avsvmcloud.com",
      "context_attributes": {
        "timestamp": 1762737498
      }
    },
    {
      "type": "domain",
      "id": "downloads.avsvmcloud.com",
      "context_attributes": {
        "timestamp": 1762630196
      }
    },
    {
      "type": "domain",
      "id": "mlj.avsvmcloud.com",
      "context_attributes": {
        "timestamp": 1762226435
      }
    },
    {
      "type": "domain",
      "id": "pop.avsvmcloud.com",
      "context_attributes": {
        "timestamp": 1760797002
      }
    },
    {
      "type": "domain",
      "id": "jod.avsvmcloud.com",
      "context_attributes": {
        "timestamp": 1760603621
      }
    },
    {
      "type": "domain",
      "id": "estimulaciontemprana.avsvmcloud.com",
      "context_attributes": {
        "timestamp": 1760276184
      }
    },
    {
      "type": "domain",
      "id": "ocm.avsvmcloud.com",
      "context_attributes": {
        "timestamp": 1758853943
      }
    },
    {
      "type": "domain",
      "id": "fua.avsvmcloud.com",
      "context_attributes": {
        "timestamp": 1758717526
      }
    },
    {
      "type": "domain",
      "id": "ifd.avsvmcloud.com",
      "context_attributes": {
        "timestamp": 1758715723
      }
    },
    {
      "type": "domain",
      "id": "pfq.avsvmcloud.com",
      "context_attributes": {
        "timestamp": 1757573910
      }
    },
    {
      "type": "domain",
      "id": "jxh.avsvmcloud.com",
      "context_attributes": {
        "timestamp": 1757523120
      }
    },
    {
      "type": "domain",
      "id": "tva.avsvmcloud.com",
      "context_attributes": {
        "timestamp": 1757316151
      }
    },
    {
      "type": "domain",
      "id": "qgh.avsvmcloud.com",
      "context_attributes": {
        "timestamp": 1757079655
      }
    },
    {
      "type": "domain",
      "id": "afm.avsvmcloud.com",
      "context_attributes": {
        "timestamp": 1756836237
      }
    },
    {
      "type": "domain",
      "id": "vud.avsvmcloud.com",
      "context_attributes": {
        "timestamp": 1756632224
      }
    },
    {
      "type": "domain",
      "id": "faj.avsvmcloud.com",
      "context_attributes": {
        "timestamp": 1756542820
      }
    },
    {
      "type": "domain",
      "id": "uds.avsvmcloud.com",
      "context_attributes": {
        "timestamp": 1756383256
      }
    },
    {
      "type": "domain",
      "id": "cpd.avsvmcloud.com",
      "context_attributes": {
        "timestamp": 1755611156
      }
    },
    {
      "type": "domain",
      "id": "evaluation.avsvmcloud.com",
      "context_attributes": {
        "timestamp": 1752896988
      }
    },
    {
      "type": "domain",
      "id": "eu-north-1.avsvmcloud.com",
      "context_attributes": {
        "timestamp": 1752509932
      }
    },
    {
      "type": "domain",
      "id": "a4-65.avsvmcloud.com",
      "context_attributes": {
        "timestamp": 1752278251
      }
    },
    {
      "type": "domain",
      "id": "com1599.avsvmcloud.com",
      "context_attributes": {
        "timestamp": 1752140802
      }
    },
    {
      "type": "domain",
      "id": "nti.avsvmcloud.com",
      "context_attributes": {
        "timestamp": 1752066306
      }
    },
    {
      "type": "domain",
      "id": "com15e65.avsvmcloud.com",
      "context_attributes": {
        "timestamp": 1751956594
      }
    },
    {
      "type": "domain",
      "id": "deftsecurity.avsvmcloud.com",
      "context_attributes": {
        "timestamp": 1751509010
      }
    },
    {
      "type": "domain",
      "id": "iwe.avsvmcloud.com",
      "context_attributes": {
        "timestamp": 1747122868
      }
    },
    {
      "type": "domain",
      "id": "ab4.avsvmcloud.com",
      "context_attributes": {
        "timestamp": 1746705460
      }
    },
    {
      "type": "domain",
      "id": "xn--43117-170-ws8aa5k.avsvmcloud.com",
      "context_attributes": {
        "timestamp": 1746627912
      }
    },
    {
      "type": "domain",
      "id": "evldev.avsvmcloud.com",
      "context_attributes": {
        "timestamp": 1743898054
      }
    },
    {
      "type": "domain",
      "id": "104-77.avsvmcloud.com",
      "context_attributes": {
        "timestamp": 1742393856
      }
    }
  ],
  "meta": {
    "count": 8344,
    "cursor": "eyJsaW1pdCI6IDMwLCAib2Zmc2V0IjogMzB9"
  },
  "links": {
    "self": "https://www.virustotal.com/api/v3/domains/avsvmcloud.com/relationships/subdomains?limit=30",
    "related": "https://www.virustotal.com/api/v3/domains/avsvmcloud.com/subdomains",
    "next": "https://www.virustotal.com/api/v3/domains/avsvmcloud.com/relationships/subdomains?limit=30&cursor=eyJsaW1pdCI6IDMwLCAib2Zmc2V0IjogMzB9"
  }
}